{
  "action": [
  {
    "Option":"Jam Cleared"
  },
  {
    "Option":"Restarted machine"
  },
  {
    "Option":"Reinstated operator(s)"
  },
  {
    "Option":"Adjusted and started"
  },
  {
    "Option":"Trained operator"
  },
  {
    "Option":"Ordered for part replacement"
  },
  {
    "Option":"Informed vendor"
  },
  {
    "Option":"Others"
  }
]
}
