{
 "QuestionBank" : [
  {
    "QuestionNo":1,
    "QuestionName":"Number of complaints received by the service, in the past [1 / 3 / 6 / 12 month/s]",
    "QuestionerType":"Textboxnumber",
    "Significant":"Yes",
    "Validation":"",
    "Validator":"",
    "Answer1":"1 months",
    "Answer2":"3 months",
    "Answer3":"6 months",
    "Answer4":"12 months",
    "Right Answer":"",
    "others1":"",
    "others2":"",
    "others3":""
  },
  {
    "QuestionNo":2,
    "QuestionName":"Total number of complaints received",
    "QuestionerType":"Radio",
    "Significant":"Yes",
    "Validation":"",
    "Validator":"",
    "Answer1":"option1",
    "Answer2":"option2",
    "Answer3":"option3",
    "Answer4":"option4",
    "Right Answer":"option1",
    "others1":"",
    "others2":"",
    "others3":""
  },
  {
    "QuestionNo":3,
    "QuestionName":"From Service Users",
    "QuestionerType":"Checkbox",
    "Significant":"Yes",
    "Validation":"",
    "Validator":"",
    "Answer1":"option1",
    "Answer2":"option2",
    "Answer3":"option3",
    "Answer4":"option4",
    "Right Answer":"",
    "others1":"",
    "others2":"",
    "others3":""
  },
  {
    "QuestionNo":4,
    "QuestionName":"From relatives of Service Users",
    "QuestionerType":"Textboxnumber",
    "Significant":"Yes",
    "Validation":"",
    "Validator":"",
    "Answer1":"",
    "Answer2":"",
    "Answer3":"",
    "Answer4":"",
    "Right Answer":"",
    "others1":"",
    "others2":"",
    "others3":""
  },
  {
    "QuestionNo":5,
    "QuestionName":"From advocates of Service Users",
    "QuestionerType":"Textboxnumber",
    "Significant":"Yes",
    "Validation":"",
    "Validator":"",
    "Answer1":"",
    "Answer2":"",
    "Answer3":"",
    "Answer4":"",
    "Right Answer":"",
    "others1":"",
    "others2":"",
    "others3":""
  },
  {
    "QuestionNo":6,
    "QuestionName":"From health care professionals",
    "QuestionerType":"Textboxnumber",
    "Significant":"Yes",
    "Validation":"",
    "Validator":"",
    "Answer1":"",
    "Answer2":"",
    "Answer3":"",
    "Answer4":"",
    "Right Answer":"",
    "others1":"",
    "others2":"",
    "others3":""
  },
  {
    "QuestionNo":7,
    "QuestionName":"From carers or staff",
    "QuestionerType":"Textboxnumber",
    "Significant":"Yes",
    "Validation":"",
    "Validator":"",
    "Answer1":"",
    "Answer2":"",
    "Answer3":"",
    "Answer4":"",
    "Right Answer":"",
    "others1":"",
    "others2":"",
    "others3":""
  },
  {
    "QuestionNo":8,
    "QuestionName":"Other complainants",
    "QuestionerType":"Textboxnumber",
    "Significant":"Yes",
    "Validation":"",
    "Validator":"",
    "Answer1":"",
    "Answer2":"",
    "Answer3":"",
    "Answer4":"",
    "Right Answer":"",
    "others1":"",
    "others2":"",
    "others3":""
  },
  {
    "QuestionNo":9,
    "QuestionName":"Number upheld",
    "QuestionerType":"Textboxnumber",
    "Significant":"Yes",
    "Validation":"",
    "Validator":"",
    "Answer1":"",
    "Answer2":"",
    "Answer3":"",
    "Answer4":"",
    "Right Answer":"",
    "others1":"",
    "others2":"",
    "others3":""
  },
  {
    "QuestionNo":10,
    "QuestionName":"Number not upheld",
    "QuestionerType":"Textboxnumber",
    "Significant":"Yes",
    "Validation":"",
    "Validator":"",
    "Answer1":"",
    "Answer2":"",
    "Answer3":"",
    "Answer4":"",
    "Right Answer":"",
    "others1":"",
    "others2":"",
    "others3":""
  },
  {
    "QuestionNo":11,
    "QuestionName":"Key actions & learning undertaken as a result of complaints (please set out below):",
    "QuestionerType":"Textboxnumber",
    "Significant":"Yes",
    "Validation":"",
    "Validator":"",
    "Answer1":"",
    "Answer2":"",
    "Answer3":"",
    "Answer4":"",
    "Right Answer":"",
    "others1":"",
    "others2":"",
    "others3":""
  }
]
}
