{
  "config": [  
    { // 1st json object 
      "NumberOfRecords": "Multiple", // string
      "TypesofControls": "MultiplePerScreen",
  "TypeofControls Template": "RoundsMgmt", 
                   "CustomerId":"CU_LGN",
                    "UserName":"",
    "Password":"",
    "CustomerDbName": "Ponnivi_CU_LGN",
  "ComplexRules": "yes",
  "Images":"MultiplePerScreen",
  "Rules": "Simple",
 "NoofImagesPerScreen":"4" ,
 "ServerUrl":"52.11.147.41",
 "CustomerSpecific":"instacustomer_mu" 
    }
]
}

