{
  "machine_downtime": [
  {
    "Option":"Less than a minute"
  },
  {
    "Option":"Less than 5 mins"
  },
  {
    "Option":"Less than 15 mins"
  },
  {
    "Option":"Less than 30 mins"
  },
  {
    "Option":"Less than 1 hr"
  },
  {
    "Option":"More than 1 hr"
  },
  {
    "Option":"More than a shift"
  }
]
}
