<?xml version="1.0" standalone="no"?>
<!DOCTYPE svg PUBLIC "-//W3C//DTD SVG 1.1//EN"
   "http://www.w3.org/Graphics/SVG/1.1/DTD/svg11.dtd">
<svg width="169" height="61" version="1.1"
   xmlns="http://www.w3.org/2000/svg">
   <desc>3NS_Site1_x3
   </desc>

   <g id="barcode" fill="#000000">
      <rect x="0" y="0" width="169" height="61" fill="#FFFFFF" />
      <rect x="1.00" y="1.00" width="2.00" height="50.00" />
      <rect x="4.00" y="1.00" width="1.00" height="50.00" />
      <rect x="7.00" y="1.00" width="1.00" height="50.00" />
      <rect x="12.00" y="1.00" width="2.00" height="50.00" />
      <rect x="16.00" y="1.00" width="1.00" height="50.00" />
      <rect x="18.00" y="1.00" width="3.00" height="50.00" />
      <rect x="23.00" y="1.00" width="1.00" height="50.00" />
      <rect x="25.00" y="1.00" width="3.00" height="50.00" />
      <rect x="31.00" y="1.00" width="2.00" height="50.00" />
      <rect x="34.00" y="1.00" width="2.00" height="50.00" />
      <rect x="37.00" y="1.00" width="3.00" height="50.00" />
      <rect x="41.00" y="1.00" width="1.00" height="50.00" />
      <rect x="45.00" y="1.00" width="1.00" height="50.00" />
      <rect x="47.00" y="1.00" width="1.00" height="50.00" />
      <rect x="50.00" y="1.00" width="2.00" height="50.00" />
      <rect x="56.00" y="1.00" width="2.00" height="50.00" />
      <rect x="59.00" y="1.00" width="3.00" height="50.00" />
      <rect x="63.00" y="1.00" width="1.00" height="50.00" />
      <rect x="67.00" y="1.00" width="1.00" height="50.00" />
      <rect x="72.00" y="1.00" width="2.00" height="50.00" />
      <rect x="75.00" y="1.00" width="1.00" height="50.00" />
      <rect x="78.00" y="1.00" width="1.00" height="50.00" />
      <rect x="81.00" y="1.00" width="4.00" height="50.00" />
      <rect x="86.00" y="1.00" width="1.00" height="50.00" />
      <rect x="89.00" y="1.00" width="1.00" height="50.00" />
      <rect x="91.00" y="1.00" width="2.00" height="50.00" />
      <rect x="95.00" y="1.00" width="1.00" height="50.00" />
      <rect x="100.00" y="1.00" width="1.00" height="50.00" />
      <rect x="103.00" y="1.00" width="3.00" height="50.00" />
      <rect x="108.00" y="1.00" width="2.00" height="50.00" />
      <rect x="111.00" y="1.00" width="1.00" height="50.00" />
      <rect x="113.00" y="1.00" width="1.00" height="50.00" />
      <rect x="116.00" y="1.00" width="2.00" height="50.00" />
      <rect x="122.00" y="1.00" width="4.00" height="50.00" />
      <rect x="128.00" y="1.00" width="1.00" height="50.00" />
      <rect x="131.00" y="1.00" width="1.00" height="50.00" />
      <rect x="133.00" y="1.00" width="2.00" height="50.00" />
      <rect x="137.00" y="1.00" width="1.00" height="50.00" />
      <rect x="139.00" y="1.00" width="3.00" height="50.00" />
      <rect x="144.00" y="1.00" width="1.00" height="50.00" />
      <rect x="147.00" y="1.00" width="1.00" height="50.00" />
      <rect x="150.00" y="1.00" width="2.00" height="50.00" />
      <rect x="155.00" y="1.00" width="2.00" height="50.00" />
      <rect x="160.00" y="1.00" width="3.00" height="50.00" />
      <rect x="164.00" y="1.00" width="1.00" height="50.00" />
      <rect x="166.00" y="1.00" width="2.00" height="50.00" />
      <text x="84.50" y="60.00" text-anchor="middle"
         font-family="Helvetica" font-size="8.0" fill="#000000" >
         3NS_Site1_x3
      </text>
   </g>
</svg>
